-------------------------------------------------------------------------------
Test set: challenges.domain.GoalIntegrationTest
-------------------------------------------------------------------------------
Tests run: 9, Failures: 0, Errors: 0, Skipped: 0, Time elapsed: 0.114 sec
