-------------------------------------------------------------------------------
Test set: challenges.domain.ChallengeIntegrationTest
-------------------------------------------------------------------------------
Tests run: 9, Failures: 0, Errors: 0, Skipped: 0, Time elapsed: 1.991 sec
