-------------------------------------------------------------------------------
Test set: challenges.domain.ChallengerIntegrationTest
-------------------------------------------------------------------------------
Tests run: 9, Failures: 0, Errors: 0, Skipped: 0, Time elapsed: 0.083 sec
